{
    "1676288190682593:1448961": {
        "RenderOrderComponent": true
    },
    "1676288190698095:1449198": {
        "InspectorComponent": {
            "Component.ScreenTransform": {
                "basicModeSetup": {
                    "attachBottom": "false",
                    "attachLeft": "false",
                    "attachRight": "false",
                    "attachTop": "false",
                    "fixHeight": "false",
                    "fixWidth": "false"
                },
                "isBasicMode": "false"
            }
        }
    }
}
