{
    "1676287743565577:1359495": {
        "Compression::IController": {
            "compressed_files": [
                {
                    "k": {
                        "settings_hash": "2048",
                        "uncompressed_hash": "820d63837c9f7c137d5a16b01c8891a2"
                    },
                    "v": "1676886071297289:249981"
                },
                {
                    "k": {
                        "settings_hash": "2049",
                        "uncompressed_hash": "820d63837c9f7c137d5a16b01c8891a2"
                    },
                    "v": "1676885014002643:5492"
                }
            ],
            "infos": {
                "compressedRAM": "1988008",
                "compressedSize": "9647",
                "extension": "png",
                "originalRAM": "1988008",
                "originalSize": "69409",
                "settings": {
                    "isCompressed": "true",
                    "level": "2",
                    "subtype": "9",
                    "type": "0"
                }
            },
            "uncompressed_file": "1676885014002631:5475"
        }
    },
    "1676885014002559:5332": {
        "IResourceController": {
            "name": "Zone3-1",
            "type": 1,
            "subtype": 9,
            "dependency": 0,
            "hidden": false,
            "uid": "1676287743565577:1359495",
            "fileId": "1676885014002630:5473",
            "originalId": "1676885014002630:5474",
            "publicId": "1676996204948281:30604",
            "expected_hash": "db86011d80856e5ade2b17a0e3057e86",
            "additional": {
                "originHash": "820d63837c9f7c137d5a16b01c8891a2"
            }
        },
        "IResourceManager": {
            "uid": "1676287743565577:1359495",
            "name": "Files/File119.png",
            "flags": 1
        }
    },
    "1676885014002630:5473": {
        "IFileManager": {
            "path": "Files/File_1676885014002630_5473.png"
        }
    },
    "1676885014002630:5474": {
        "IFileManager": {
            "path": "Files/File_1676885014002630_5474.png"
        }
    },
    "1676885014002631:5475": {
        "IFileManager": {
            "path": "Files/File_1676885014002631_5475.png"
        }
    },
    "1676885014002643:5492": {
        "IFileManager": {
            "path": "Files/File_1676885014002643_5492.pvr"
        }
    },
    "1676886071297289:249981": {
        "IFileManager": {
            "path": "Files/File_1676886071297289_249981.png"
        }
    },
    "1676996204948281:30604": {
        "IResourceController": {
            "public": {
                "path": "PuzzleMap/Zone3-1.png",
                "hash": "820d63837c9f7c137d5a16b01c8891a2"
            }
        }
    }
}
