{
    "1676886729768426:537064": {
        "IResourceController": {
            "name": "naqi-hat",
            "type": 0,
            "subtype": -1,
            "dependency": 0,
            "hidden": false,
            "publicId": "1676996205007235:30667",
            "resources": [
                "1676886729769303:537066",
                "1676886730362490:537443"
            ]
        }
    },
    "1676996205007235:30667": {
        "IResourceController": {
            "public": {
                "path": "naqi-hat"
            }
        }
    }
}
