{
    "1676295744340316:2273422": {
        "Compression::IController": {
            "compressed_files": [
                {
                    "k": {
                        "settings_hash": "2048",
                        "uncompressed_hash": "41e7b3ae2ced1fed9cf672e36705227e"
                    },
                    "v": "1676886020541094:221374"
                },
                {
                    "k": {
                        "settings_hash": "2049",
                        "uncompressed_hash": "41e7b3ae2ced1fed9cf672e36705227e"
                    },
                    "v": "1676885014002675:5536"
                }
            ],
            "infos": {
                "compressedRAM": "68072",
                "compressedSize": "862",
                "extension": "png",
                "originalRAM": "68072",
                "originalSize": "2941",
                "settings": {
                    "isCompressed": "true",
                    "level": "2",
                    "subtype": "9",
                    "type": "0"
                }
            },
            "uncompressed_file": "1676885014002672:5531"
        }
    },
    "1676885014002561:5346": {
        "IResourceController": {
            "name": "RightClick",
            "type": 1,
            "subtype": 9,
            "dependency": 0,
            "hidden": false,
            "uid": "1676295744340316:2273422",
            "fileId": "1676885014002670:5529",
            "originalId": "1676885014002671:5530",
            "publicId": "1676996204931989:30582",
            "expected_hash": "5b010289b0c3b6e7be1e01e27fc95a05",
            "additional": {
                "originHash": "41e7b3ae2ced1fed9cf672e36705227e"
            }
        },
        "IResourceManager": {
            "uid": "1676295744340316:2273422",
            "name": "Files/File179.png",
            "flags": 1
        }
    },
    "1676885014002670:5529": {
        "IFileManager": {
            "path": "Files/File_1676885014002670_5529.png"
        }
    },
    "1676885014002671:5530": {
        "IFileManager": {
            "path": "Files/File_1676885014002671_5530.png"
        }
    },
    "1676885014002672:5531": {
        "IFileManager": {
            "path": "Files/File_1676885014002672_5531.png"
        }
    },
    "1676885014002675:5536": {
        "IFileManager": {
            "path": "Files/File_1676885014002675_5536.pvr"
        }
    },
    "1676886020541094:221374": {
        "IFileManager": {
            "path": "Files/File_1676886020541094_221374.png"
        }
    },
    "1676996204931989:30582": {
        "IResourceController": {
            "public": {
                "path": "Palm UI/RightClick.png",
                "hash": "41e7b3ae2ced1fed9cf672e36705227e"
            }
        }
    }
}
