{
    "1676885014002579:5405": {
        "IFileManager": {
            "path": "Files/File_1676885014002579_5405.hdr"
        }
    },
    "1676885014002831:5741": {
        "IResourceController": {
            "name": "Echopark",
            "type": 9,
            "subtype": -1,
            "dependency": 2,
            "hidden": false,
            "fileId": "1676885014002579:5405",
            "publicId": "1676996204731642:30572",
            "expected_hash": "0cf0e87a54f33218fcf92a12d7f0ede2",
            "resources": [
                "1676885014002556:5312",
                "1676885014002556:5313"
            ]
        }
    },
    "1676996204731642:30572": {
        "IResourceController": {
            "public": {
                "path": "Echopark.hdr",
                "hash": "0cf0e87a54f33218fcf92a12d7f0ede2"
            }
        }
    }
}
