{
    "1676934781793767:377279": {
        "IFileManager": {
            "path": "Files/File_1676934781793767_377279.js"
        }
    },
    "1676934781799804:377280": {
        "IResourceController": {
            "name": "TweenTransform",
            "type": 4,
            "subtype": 0,
            "dependency": 0,
            "hidden": false,
            "uid": "1676934781799836:377281",
            "fileId": "1676934781793767:377279",
            "publicId": "1676996204961772:30631",
            "expected_hash": "7786f78e9bb2fd315e3786c72e87630a"
        },
        "IResourceManager": {
            "uid": "1676934781799836:377281",
            "name": "Files/File_1676934781793767_377279.js",
            "flags": 1
        }
    },
    "1676996204961772:30631": {
        "IResourceController": {
            "public": {
                "path": "Tween/TweenTypes/TweenTransform.js",
                "hash": "7786f78e9bb2fd315e3786c72e87630a"
            }
        }
    }
}
