{
    "1676283822437777:969865": {
        "RenderOrderComponent": true
    },
    "1676283822438004:969866": {
        "InspectorComponent": {
            "Component.ScreenTransform": {
                "basicModeSetup": {
                    "attachBottom": "false",
                    "attachLeft": "false",
                    "attachRight": "false",
                    "attachTop": "false",
                    "fixHeight": "false",
                    "fixWidth": "false"
                },
                "isBasicMode": "false"
            }
        }
    }
}
