{
    "1676287743956441:1360120": {
        "Compression::IController": {
            "compressed_files": [
                {
                    "k": {
                        "settings_hash": "2048",
                        "uncompressed_hash": "d6c462f9330a5aa060d85161d8397e38"
                    },
                    "v": "1676886071776640:254844"
                },
                {
                    "k": {
                        "settings_hash": "2049",
                        "uncompressed_hash": "d6c462f9330a5aa060d85161d8397e38"
                    },
                    "v": "1676885014002644:5494"
                }
            ],
            "infos": {
                "compressedRAM": "4116544",
                "compressedSize": "15731",
                "extension": "png",
                "originalRAM": "4116544",
                "originalSize": "129187",
                "settings": {
                    "isCompressed": "true",
                    "level": "2",
                    "subtype": "9",
                    "type": "0"
                }
            },
            "uncompressed_file": "1676885014002635:5481"
        }
    },
    "1676885014002559:5334": {
        "IResourceController": {
            "name": "Zone1-2",
            "type": 1,
            "subtype": 9,
            "dependency": 0,
            "hidden": false,
            "uid": "1676287743956441:1360120",
            "fileId": "1676885014002634:5479",
            "originalId": "1676885014002634:5480",
            "publicId": "1676996204949401:30606",
            "expected_hash": "0597c2b203fdb5b1a2ac6e186765ef67",
            "additional": {
                "originHash": "d6c462f9330a5aa060d85161d8397e38"
            }
        },
        "IResourceManager": {
            "uid": "1676287743956441:1360120",
            "name": "Files/File125.png",
            "flags": 1
        }
    },
    "1676885014002634:5479": {
        "IFileManager": {
            "path": "Files/File_1676885014002634_5479.png"
        }
    },
    "1676885014002634:5480": {
        "IFileManager": {
            "path": "Files/File_1676885014002634_5480.png"
        }
    },
    "1676885014002635:5481": {
        "IFileManager": {
            "path": "Files/File_1676885014002635_5481.png"
        }
    },
    "1676885014002644:5494": {
        "IFileManager": {
            "path": "Files/File_1676885014002644_5494.pvr"
        }
    },
    "1676886071776640:254844": {
        "IFileManager": {
            "path": "Files/File_1676886071776640_254844.png"
        }
    },
    "1676996204949401:30606": {
        "IResourceController": {
            "public": {
                "path": "PuzzleMap/Zone1-2.png",
                "hash": "d6c462f9330a5aa060d85161d8397e38"
            }
        }
    }
}
