{
    "1676886726897863:535637": {
        "IResourceController": {
            "name": "Meshes",
            "type": 0,
            "subtype": -1,
            "dependency": 0,
            "hidden": false,
            "publicId": "1676996204984505:30647",
            "resources": [
                "1676886726872531:535621",
                "1676886726914808:535643"
            ]
        }
    },
    "1676996204984505:30647": {
        "IResourceController": {
            "public": {
                "path": "naqi-chains/Meshes"
            }
        }
    }
}
