{
    "1676886730438302:537466": {
        "IFileManager": {
            "path": "Files/File_1676886730438302_537466.mesh"
        }
    },
    "1676886730440358:537467": {
        "IResourceController": {
            "name": "hat 3",
            "type": 3,
            "subtype": 0,
            "dependency": 0,
            "hidden": false,
            "uid": "1676886730460069:537469",
            "fileId": "1676886730438302:537466",
            "publicId": "1676996205017770:30675",
            "expected_hash": "9daaf73618644382a0586e15f48953b4",
            "additional": {
                "externalBodyLink": [
                    "1676881330941820:30159"
                ],
                "info": {
                    "hasBlendShapes": "false",
                    "vertexAttribs": [
                        {
                            "canBeDisabled": "false",
                            "format": "9",
                            "semantic": "position"
                        },
                        {
                            "canBeDisabled": "true",
                            "format": "9",
                            "semantic": "normal"
                        },
                        {
                            "canBeDisabled": "true",
                            "format": "9",
                            "semantic": "tangent"
                        },
                        {
                            "canBeDisabled": "true",
                            "format": "9",
                            "semantic": "texture0"
                        }
                    ]
                }
            }
        },
        "IResourceManager": {
            "uid": "1676886730460069:537469",
            "name": "Files/File_1676886730438302_537466.mesh",
            "flags": 1
        }
    },
    "1676886730460069:537469": {
        "Compression::IController": {
            "compressed_files": [
                {
                    "k": {
                        "settings_hash": "4125632564704064843",
                        "uncompressed_hash": "880c816515f92248d319f43cee3736b6"
                    },
                    "v": "1676886735823912:539200"
                }
            ],
            "infos": {
                "compressedRAM": "60480",
                "compressedSize": "9633",
                "extension": "mesh",
                "originalRAM": "60480",
                "originalSize": "36244",
                "settings": {
                    "attributeFormat": "",
                    "draco": {
                        "colorBits": "8",
                        "compressLvl": "7",
                        "normalBits": "8",
                        "posBits": "11",
                        "texBits": "10"
                    },
                    "info": {
                        "hasBlendShapes": "false",
                        "vertexAttribs": [
                            {
                                "canBeDisabled": "false",
                                "format": "9",
                                "semantic": "position"
                            },
                            {
                                "canBeDisabled": "true",
                                "format": "9",
                                "semantic": "normal"
                            },
                            {
                                "canBeDisabled": "true",
                                "format": "9",
                                "semantic": "tangent"
                            },
                            {
                                "canBeDisabled": "true",
                                "format": "9",
                                "semantic": "texture0"
                            }
                        ]
                    },
                    "isCompressed": "true",
                    "type": "1"
                }
            },
            "uncompressed_file": "1676886730466454:537482"
        }
    },
    "1676886730466454:537482": {
        "IFileManager": {
            "path": "Files/File_1676886730466454_537482.mesh"
        }
    },
    "1676886735823912:539200": {
        "IFileManager": {
            "path": "Files/File_1676886735823912_539200.mesh"
        }
    },
    "1676996205017770:30675": {
        "IResourceController": {
            "public": {
                "path": "naqi-hat/Meshes/hat 3.mesh",
                "hash": "9daaf73618644382a0586e15f48953b4"
            }
        }
    }
}
