{
    "1676886727566417:536041": {
        "IResourceController": {
            "name": "naqi-hejab 2",
            "type": 0,
            "subtype": -1,
            "dependency": 0,
            "hidden": false,
            "publicId": "1676996204992365:30654",
            "resources": [
                "1676886727566938:536043",
                "1676886728281639:536430",
                "1676886728370211:536449",
                "1676886728649194:536515"
            ]
        }
    },
    "1676996204992365:30654": {
        "IResourceController": {
            "public": {
                "path": "naqi-hejab 2"
            }
        }
    }
}
