{
    "1676886728347337:536436": {
        "IFileManager": {
            "path": "Files/File_1676886728347337_536436.mesh"
        }
    },
    "1676886728349150:536437": {
        "IResourceController": {
            "name": "Plane",
            "type": 3,
            "subtype": 0,
            "dependency": 0,
            "hidden": false,
            "uid": "1676886728366874:536439",
            "fileId": "1676886728347337:536436",
            "publicId": "1676996205005632:30663",
            "expected_hash": "1500f9886c0f8b7a90b074bf607c12ea",
            "additional": {
                "externalBodyLink": [
                    "1676881330941823:30182"
                ],
                "info": {
                    "hasBlendShapes": "false",
                    "vertexAttribs": [
                        {
                            "canBeDisabled": "false",
                            "format": "9",
                            "semantic": "position"
                        },
                        {
                            "canBeDisabled": "true",
                            "format": "9",
                            "semantic": "normal"
                        },
                        {
                            "canBeDisabled": "true",
                            "format": "9",
                            "semantic": "tangent"
                        },
                        {
                            "canBeDisabled": "true",
                            "format": "9",
                            "semantic": "texture0"
                        }
                    ]
                }
            }
        },
        "IResourceManager": {
            "uid": "1676886728366874:536439",
            "name": "Files/File_1676886728347337_536436.mesh",
            "flags": 1
        }
    },
    "1676886728366874:536439": {
        "Compression::IController": {
            "compressed_files": [
                {
                    "k": {
                        "settings_hash": "4125632564704064843",
                        "uncompressed_hash": "30bc5ee7716093891f162ac874a64633"
                    },
                    "v": "1676886736861840:547868"
                }
            ],
            "infos": {
                "compressedRAM": "3552",
                "compressedSize": "1363",
                "extension": "mesh",
                "originalRAM": "3552",
                "originalSize": "3541",
                "settings": {
                    "attributeFormat": "",
                    "draco": {
                        "colorBits": "8",
                        "compressLvl": "7",
                        "normalBits": "8",
                        "posBits": "11",
                        "texBits": "10"
                    },
                    "info": {
                        "hasBlendShapes": "false",
                        "vertexAttribs": [
                            {
                                "canBeDisabled": "false",
                                "format": "9",
                                "semantic": "position"
                            },
                            {
                                "canBeDisabled": "true",
                                "format": "9",
                                "semantic": "normal"
                            },
                            {
                                "canBeDisabled": "true",
                                "format": "9",
                                "semantic": "tangent"
                            },
                            {
                                "canBeDisabled": "true",
                                "format": "9",
                                "semantic": "texture0"
                            }
                        ]
                    },
                    "isCompressed": "true",
                    "type": "1"
                }
            },
            "uncompressed_file": "1676886728371366:536452"
        }
    },
    "1676886728371366:536452": {
        "IFileManager": {
            "path": "Files/File_1676886728371366_536452.mesh"
        }
    },
    "1676886736861840:547868": {
        "IFileManager": {
            "path": "Files/File_1676886736861840_547868.mesh"
        }
    },
    "1676996205005632:30663": {
        "IResourceController": {
            "public": {
                "path": "naqi-hejab 2/Meshes/Plane.mesh",
                "hash": "1500f9886c0f8b7a90b074bf607c12ea"
            }
        }
    }
}
