{
    "1676886726913145:535642": {
        "IFileManager": {
            "path": "Files/File_1676886726913145_535642.mesh"
        }
    },
    "1676886726914808:535643": {
        "IResourceController": {
            "name": "NurbsPath",
            "type": 3,
            "subtype": 0,
            "dependency": 0,
            "hidden": false,
            "uid": "1676886726931758:535647",
            "fileId": "1676886726913145:535642",
            "publicId": "1676996204985191:30649",
            "expected_hash": "94e24a33b9efc3b881705feb5363cec9",
            "additional": {
                "info": {
                    "hasBlendShapes": "false",
                    "vertexAttribs": [
                        {
                            "canBeDisabled": "false",
                            "format": "9",
                            "semantic": "position"
                        },
                        {
                            "canBeDisabled": "true",
                            "format": "9",
                            "semantic": "normal"
                        },
                        {
                            "canBeDisabled": "true",
                            "format": "9",
                            "semantic": "tangent"
                        },
                        {
                            "canBeDisabled": "true",
                            "format": "9",
                            "semantic": "texture0"
                        },
                        {
                            "canBeDisabled": "true",
                            "format": "9",
                            "semantic": "boneData"
                        }
                    ]
                }
            }
        },
        "IResourceManager": {
            "uid": "1676886726931758:535647",
            "name": "Files/File_1676886726913145_535642.mesh",
            "flags": 1
        }
    },
    "1676886726931758:535647": {
        "Compression::IController": {
            "compressed_files": "",
            "infos": {
                "compressedRAM": "46832",
                "compressedSize": "30933",
                "extension": "mesh",
                "originalRAM": "46832",
                "originalSize": "30933",
                "settings": {
                    "attributeFormat": "",
                    "draco": {
                        "colorBits": "8",
                        "compressLvl": "7",
                        "normalBits": "8",
                        "posBits": "11",
                        "texBits": "10"
                    },
                    "info": {
                        "hasBlendShapes": "false",
                        "vertexAttribs": [
                            {
                                "canBeDisabled": "false",
                                "format": "9",
                                "semantic": "position"
                            },
                            {
                                "canBeDisabled": "true",
                                "format": "9",
                                "semantic": "normal"
                            },
                            {
                                "canBeDisabled": "true",
                                "format": "9",
                                "semantic": "tangent"
                            },
                            {
                                "canBeDisabled": "true",
                                "format": "9",
                                "semantic": "texture0"
                            },
                            {
                                "canBeDisabled": "true",
                                "format": "9",
                                "semantic": "boneData"
                            }
                        ]
                    },
                    "isCompressed": "false",
                    "type": "0"
                }
            },
            "uncompressed_file": "1676886726939014:535658"
        }
    },
    "1676886726939014:535658": {
        "IFileManager": {
            "path": "Files/File_1676886726939014_535658.mesh"
        }
    },
    "1676996204985191:30649": {
        "IResourceController": {
            "public": {
                "path": "naqi-chains/Meshes/NurbsPath.mesh",
                "hash": "94e24a33b9efc3b881705feb5363cec9"
            }
        }
    }
}
