{
    "1676886730825159:537625": {
        "IResourceController": {
            "name": "Body Tracking Asset 2",
            "type": 24,
            "subtype": 0,
            "dependency": 0,
            "hidden": false,
            "uid": "1676886730822212:537610"
        },
        "IResourceManager": {
            "uid": "1676886730822212:537610",
            "name": "",
            "flags": 0
        }
    }
}
