{
    "1676886728259904:536417": {
        "IFileManager": {
            "path": "Files/File_1676886728259904_536417.png"
        }
    },
    "1676886728261787:536418": {
        "IResourceController": {
            "name": "texture",
            "type": 1,
            "subtype": 9,
            "dependency": 0,
            "hidden": false,
            "uid": "1676886728261902:536419",
            "fileId": "1676886728259904:536417",
            "originalId": "1676886728262225:536424",
            "publicId": "1676996205000355:30660",
            "expected_hash": "fda00443e5f46d5a9595ef44a221492e",
            "additional": {
                "originHash": "bac6ad5f48dfeda00bfae67e3669087e",
                "subtype": "9"
            }
        },
        "IResourceManager": {
            "uid": "1676886728261902:536419",
            "name": "Files/File_1676886728259904_536417.jpg",
            "flags": 1
        }
    },
    "1676886728261902:536419": {
        "Compression::IController": {
            "compressed_files": [
                {
                    "k": {
                        "settings_hash": "1024",
                        "uncompressed_hash": "bac6ad5f48dfeda00bfae67e3669087e"
                    },
                    "v": "1676886737628490:555514"
                }
            ],
            "infos": {
                "compressedRAM": "4194304",
                "compressedSize": "260596",
                "extension": "png",
                "originalRAM": "4194304",
                "originalSize": "1905057",
                "settings": {
                    "isCompressed": "true",
                    "level": "1",
                    "subtype": "9",
                    "type": "0"
                }
            },
            "uncompressed_file": "1676886728283102:536434"
        }
    },
    "1676886728262225:536424": {
        "IFileManager": {
            "path": "Files/File_1676886728262225_536424.png"
        }
    },
    "1676886728283102:536434": {
        "IFileManager": {
            "path": "Files/File_1676886728283102_536434.png"
        }
    },
    "1676886737628490:555514": {
        "IFileManager": {
            "path": "Files/File_1676886737628490_555514.png"
        }
    },
    "1676996205000355:30660": {
        "IResourceController": {
            "public": {
                "path": "naqi-hejab 2/Textures5/texture.png",
                "hash": "bac6ad5f48dfeda00bfae67e3669087e"
            }
        }
    }
}
