{
    "1676886729545638:537049": {
        "IFileManager": {
            "path": "Files/File_1676886729545638_537049"
        }
    },
    "1676886729547856:537050": {
        "IResourceController": {
            "name": "Fabric Pattern 03",
            "type": 2,
            "subtype": 1,
            "dependency": 0,
            "hidden": false,
            "uid": "1676886729547861:537051",
            "fileId": "1676886729545638:537049",
            "originalId": "1676886729576307:537057",
            "publicId": "1676996205007689:30669",
            "expected_hash": "6b326b5020b0c947ad74a59423700484"
        },
        "IResourceManager": {
            "uid": "1676886729547861:537051",
            "name": "Files/File_1676886729545638_537049",
            "flags": 1
        }
    },
    "1676886729576307:537057": {
        "IFileManager": {
            "path": "Files/File_1676886729576307_537057.lsmat"
        }
    },
    "1676996205007689:30669": {
        "IResourceController": {
            "public": {
                "path": "naqi-hat/Materials00/Fabric Pattern 03.lsmat",
                "hash": "62d558daa75f77513f00db1abd4b5869"
            }
        }
    }
}
