{
    "1676281920767724:555063": {
        "Compression::IController": {
            "compressed_files": [
                {
                    "k": {
                        "settings_hash": "2048",
                        "uncompressed_hash": "bf76554e152738105de6111ddc9b81d9"
                    },
                    "v": "1676885992853063:156945"
                },
                {
                    "k": {
                        "settings_hash": "2049",
                        "uncompressed_hash": "bf76554e152738105de6111ddc9b81d9"
                    },
                    "v": "1676885014002613:5451"
                }
            ],
            "infos": {
                "compressedRAM": "2153088",
                "compressedSize": "14172",
                "extension": "png",
                "originalRAM": "2153088",
                "originalSize": "99547",
                "settings": {
                    "isCompressed": "true",
                    "level": "2",
                    "subtype": "9",
                    "type": "0"
                }
            },
            "uncompressed_file": "1676885014002606:5441"
        }
    },
    "1676885014002558:5324": {
        "IResourceController": {
            "name": "Zone1-3",
            "type": 1,
            "subtype": 9,
            "dependency": 0,
            "hidden": false,
            "uid": "1676281920767724:555063",
            "fileId": "1676885014002605:5439",
            "originalId": "1676885014002605:5440",
            "publicId": "1676996204935404:30589",
            "expected_hash": "98907dcaadbf36c680f2aaaa89b40620",
            "additional": {
                "originHash": "bf76554e152738105de6111ddc9b81d9"
            }
        },
        "IResourceManager": {
            "uid": "1676281920767724:555063",
            "name": "Files/File45.png",
            "flags": 1
        }
    },
    "1676885014002605:5439": {
        "IFileManager": {
            "path": "Files/File_1676885014002605_5439.png"
        }
    },
    "1676885014002605:5440": {
        "IFileManager": {
            "path": "Files/File_1676885014002605_5440.png"
        }
    },
    "1676885014002606:5441": {
        "IFileManager": {
            "path": "Files/File_1676885014002606_5441.png"
        }
    },
    "1676885014002613:5451": {
        "IFileManager": {
            "path": "Files/File_1676885014002613_5451.pvr"
        }
    },
    "1676885992853063:156945": {
        "IFileManager": {
            "path": "Files/File_1676885992853063_156945.png"
        }
    },
    "1676996204935404:30589": {
        "IResourceController": {
            "public": {
                "path": "Maps/Zone1-3.png",
                "hash": "bf76554e152738105de6111ddc9b81d9"
            }
        }
    }
}
