{
    "1676886728649194:536515": {
        "IResourceController": {
            "name": "Textures6",
            "type": 0,
            "subtype": -1,
            "dependency": 0,
            "hidden": false,
            "publicId": "1676996205006951:30666",
            "resources": []
        }
    },
    "1676996205006951:30666": {
        "IResourceController": {
            "public": {
                "path": "naqi-hejab 2/Textures6"
            }
        }
    }
}
