{
    "1676276749015560:2007": {
        "InspectorComponent": {
            "Component.ScreenTransform": {
                "basicModeSetup": {
                    "attachBottom": "false",
                    "attachLeft": "false",
                    "attachRight": "false",
                    "attachTop": "false",
                    "fixHeight": "false",
                    "fixWidth": "false"
                },
                "isBasicMode": "true"
            }
        }
    }
}
