{
    "1676886729486450:536989": {
        "IResourceController": {
            "name": "Full Body Mesh 3",
            "type": 3,
            "subtype": 4,
            "dependency": 0,
            "hidden": false,
            "uid": "1676886729486437:536988"
        },
        "IResourceManager": {
            "uid": "1676886729486437:536988",
            "name": "",
            "flags": 0
        }
    }
}
