{
    "1676885014002556:5313": {
        "IResourceController": {
            "name": "Specular",
            "type": 1,
            "subtype": 9,
            "dependency": 1,
            "hidden": false,
            "uid": "1588296316857901:534385",
            "fileId": "1676885014002578:5403",
            "originalId": "1676885014002579:5404",
            "expected_hash": "0ab1187ca732ed723d2e302f88f072f0"
        },
        "IResourceManager": {
            "uid": "1588296316857901:534385",
            "name": "Files/File_1676885014002578_5403.jpeg",
            "flags": 1
        }
    },
    "1676885014002578:5403": {
        "IFileManager": {
            "path": "Files/File_1676885014002578_5403.jpeg"
        }
    },
    "1676885014002579:5404": {
        "IFileManager": {
            "path": "Files/File_1676885014002579_5404.jpeg"
        }
    }
}
