{
    "1676934781442129:377228": {
        "IFileManager": {
            "path": "Files/File_1676934781442129_377228.js"
        }
    },
    "1676934781448915:377229": {
        "IResourceController": {
            "name": "TweenValue",
            "type": 4,
            "subtype": 0,
            "dependency": 0,
            "hidden": false,
            "uid": "1676934781448943:377230",
            "fileId": "1676934781442129:377228",
            "publicId": "1676996204959929:30627",
            "expected_hash": "5c5dd53e4d2a21b44eba55fb18d06e31"
        },
        "IResourceManager": {
            "uid": "1676934781448943:377230",
            "name": "Files/File_1676934781442129_377228.js",
            "flags": 1
        }
    },
    "1676996204959929:30627": {
        "IResourceController": {
            "public": {
                "path": "Tween/TweenTypes/TweenValue.js",
                "hash": "5c5dd53e4d2a21b44eba55fb18d06e31"
            }
        }
    }
}
