{
    "1676293421620413:1765760": {
        "Compression::IController": {
            "compressed_files": [
                {
                    "k": {
                        "settings_hash": "2048",
                        "uncompressed_hash": "1907c7c506858487d6da8a1d39982515"
                    },
                    "v": "1676885996135427:188553"
                },
                {
                    "k": {
                        "settings_hash": "2049",
                        "uncompressed_hash": "1907c7c506858487d6da8a1d39982515"
                    },
                    "v": "1676885014002658:5513"
                }
            ],
            "infos": {
                "compressedRAM": "2241088",
                "compressedSize": "8296",
                "extension": "png",
                "originalRAM": "2241088",
                "originalSize": "39766",
                "settings": {
                    "isCompressed": "true",
                    "level": "2",
                    "subtype": "9",
                    "type": "0"
                }
            },
            "uncompressed_file": "1676885014002658:5512"
        }
    },
    "1676885014002560:5341": {
        "IResourceController": {
            "name": "PromoCode",
            "type": 1,
            "subtype": 9,
            "dependency": 0,
            "hidden": false,
            "uid": "1676293421620413:1765760",
            "fileId": "1676885014002656:5510",
            "originalId": "1676885014002657:5511",
            "publicId": "1676996204945441:30599",
            "expected_hash": "6d7c9010098a95d821f9f728de4033b4",
            "additional": {
                "originHash": "1907c7c506858487d6da8a1d39982515"
            }
        },
        "IResourceManager": {
            "uid": "1676293421620413:1765760",
            "name": "Files/File160.png",
            "flags": 1
        }
    },
    "1676885014002656:5510": {
        "IFileManager": {
            "path": "Files/File_1676885014002656_5510.png"
        }
    },
    "1676885014002657:5511": {
        "IFileManager": {
            "path": "Files/File_1676885014002657_5511.png"
        }
    },
    "1676885014002658:5512": {
        "IFileManager": {
            "path": "Files/File_1676885014002658_5512.png"
        }
    },
    "1676885014002658:5513": {
        "IFileManager": {
            "path": "Files/File_1676885014002658_5513.pvr"
        }
    },
    "1676885996135427:188553": {
        "IFileManager": {
            "path": "Files/File_1676885996135427_188553.png"
        }
    },
    "1676996204945441:30599": {
        "IResourceController": {
            "public": {
                "path": "Maps/PromoCode.png",
                "hash": "1907c7c506858487d6da8a1d39982515"
            }
        }
    }
}
