{
    "1676886728457664:536474": {
        "IFileManager": {
            "path": "Files/File_1676886728457664_536474.mesh"
        }
    },
    "1676886728459446:536475": {
        "IResourceController": {
            "name": "Plane 2",
            "type": 3,
            "subtype": 0,
            "dependency": 0,
            "hidden": false,
            "uid": "1676886728477435:536477",
            "fileId": "1676886728457664:536474",
            "publicId": "1676996205006574:30665",
            "expected_hash": "374f196862d1ba6adc5b7389b153c038",
            "additional": {
                "externalBodyLink": [
                    "1676881330941823:30183"
                ],
                "info": {
                    "hasBlendShapes": "false",
                    "vertexAttribs": [
                        {
                            "canBeDisabled": "false",
                            "format": "9",
                            "semantic": "position"
                        },
                        {
                            "canBeDisabled": "true",
                            "format": "9",
                            "semantic": "normal"
                        },
                        {
                            "canBeDisabled": "true",
                            "format": "9",
                            "semantic": "tangent"
                        },
                        {
                            "canBeDisabled": "true",
                            "format": "9",
                            "semantic": "texture0"
                        }
                    ]
                }
            }
        },
        "IResourceManager": {
            "uid": "1676886728477435:536477",
            "name": "Files/File_1676886728457664_536474.mesh",
            "flags": 1
        }
    },
    "1676886728477435:536477": {
        "Compression::IController": {
            "compressed_files": [
                {
                    "k": {
                        "settings_hash": "4125632564704064843",
                        "uncompressed_hash": "9beac002c65c17abe66867186e9ddcc2"
                    },
                    "v": "1676886736975069:550222"
                }
            ],
            "infos": {
                "compressedRAM": "66432",
                "compressedSize": "9905",
                "extension": "mesh",
                "originalRAM": "66096",
                "originalSize": "51798",
                "settings": {
                    "attributeFormat": "",
                    "draco": {
                        "colorBits": "8",
                        "compressLvl": "7",
                        "normalBits": "8",
                        "posBits": "11",
                        "texBits": "10"
                    },
                    "info": {
                        "hasBlendShapes": "false",
                        "vertexAttribs": [
                            {
                                "canBeDisabled": "false",
                                "format": "9",
                                "semantic": "position"
                            },
                            {
                                "canBeDisabled": "true",
                                "format": "9",
                                "semantic": "normal"
                            },
                            {
                                "canBeDisabled": "true",
                                "format": "9",
                                "semantic": "tangent"
                            },
                            {
                                "canBeDisabled": "true",
                                "format": "9",
                                "semantic": "texture0"
                            }
                        ]
                    },
                    "isCompressed": "true",
                    "type": "1"
                }
            },
            "uncompressed_file": "1676886728484389:536490"
        }
    },
    "1676886728484389:536490": {
        "IFileManager": {
            "path": "Files/File_1676886728484389_536490.mesh"
        }
    },
    "1676886736975069:550222": {
        "IFileManager": {
            "path": "Files/File_1676886736975069_550222.mesh"
        }
    },
    "1676996205006574:30665": {
        "IResourceController": {
            "public": {
                "path": "naqi-hejab 2/Meshes/Plane 2.mesh",
                "hash": "374f196862d1ba6adc5b7389b153c038"
            }
        }
    }
}
