{
    "1676287743444288:1359481": {
        "Compression::IController": {
            "compressed_files": [
                {
                    "k": {
                        "settings_hash": "2048",
                        "uncompressed_hash": "866c13ce19555d8cce7379d867c29b23"
                    },
                    "v": "1676886071195224:249635"
                },
                {
                    "k": {
                        "settings_hash": "2049",
                        "uncompressed_hash": "866c13ce19555d8cce7379d867c29b23"
                    },
                    "v": "1676885014002642:5491"
                }
            ],
            "infos": {
                "compressedRAM": "937408",
                "compressedSize": "9020",
                "extension": "png",
                "originalRAM": "937408",
                "originalSize": "56916",
                "settings": {
                    "isCompressed": "true",
                    "level": "2",
                    "subtype": "9",
                    "type": "0"
                }
            },
            "uncompressed_file": "1676885014002629:5472"
        }
    },
    "1676885014002559:5331": {
        "IResourceController": {
            "name": "Zone2-3",
            "type": 1,
            "subtype": 9,
            "dependency": 0,
            "hidden": false,
            "uid": "1676287743444288:1359481",
            "fileId": "1676885014002627:5470",
            "originalId": "1676885014002628:5471",
            "publicId": "1676996204947844:30603",
            "expected_hash": "bd11f1f6a28ae226d4baa12ab2431455",
            "additional": {
                "originHash": "866c13ce19555d8cce7379d867c29b23"
            }
        },
        "IResourceManager": {
            "uid": "1676287743444288:1359481",
            "name": "Files/File116.png",
            "flags": 1
        }
    },
    "1676885014002627:5470": {
        "IFileManager": {
            "path": "Files/File_1676885014002627_5470.png"
        }
    },
    "1676885014002628:5471": {
        "IFileManager": {
            "path": "Files/File_1676885014002628_5471.png"
        }
    },
    "1676885014002629:5472": {
        "IFileManager": {
            "path": "Files/File_1676885014002629_5472.png"
        }
    },
    "1676885014002642:5491": {
        "IFileManager": {
            "path": "Files/File_1676885014002642_5491.pvr"
        }
    },
    "1676886071195224:249635": {
        "IFileManager": {
            "path": "Files/File_1676886071195224_249635.png"
        }
    },
    "1676996204947844:30603": {
        "IResourceController": {
            "public": {
                "path": "PuzzleMap/Zone2-3.png",
                "hash": "866c13ce19555d8cce7379d867c29b23"
            }
        }
    }
}
