{
    "1676885014002942:5771": {
        "IResourceController": {
            "name": "Project Resources Root",
            "type": 0,
            "subtype": -1,
            "dependency": 0,
            "hidden": false,
            "resources": [
                "1676885014002555:5310",
                "1676885014002556:5311",
                "1676885014002556:5314",
                "1676885014002831:5741",
                "1676885014002837:5742",
                "1676885014002845:5743",
                "1676885014002849:5744",
                "1676885014002850:5745",
                "1676885014002854:5746",
                "1676885014002562:5353",
                "1676885014002562:5354",
                "1676885014002856:5748",
                "1676885014002565:5377",
                "1676885014002567:5394",
                "1676885014002941:5769",
                "1676885014002942:5770",
                "1676886726897312:535635",
                "1676886727566417:536041",
                "1676886729486450:536989",
                "1676886729491805:537010",
                "1676886729505438:537036",
                "1676886729768426:537064",
                "1676886730512806:537500",
                "1676886730572185:537529",
                "1676886730585258:537553",
                "1676886730605452:537580",
                "1676886730648391:537594",
                "1676886730825159:537625",
                "1676938003221653:60529",
                "1676995295716638:66690"
            ]
        }
    }
}
