{
    "1676287744167217:1360739": {
        "Compression::IController": {
            "compressed_files": [
                {
                    "k": {
                        "settings_hash": "2048",
                        "uncompressed_hash": "de87857e57232e134d980e1c3531b8eb"
                    },
                    "v": "1676886072088309:260051"
                },
                {
                    "k": {
                        "settings_hash": "2049",
                        "uncompressed_hash": "de87857e57232e134d980e1c3531b8eb"
                    },
                    "v": "1676885014002645:5495"
                }
            ],
            "infos": {
                "compressedRAM": "10205952",
                "compressedSize": "32793",
                "extension": "png",
                "originalRAM": "10205952",
                "originalSize": "238264",
                "settings": {
                    "isCompressed": "true",
                    "level": "2",
                    "subtype": "9",
                    "type": "0"
                }
            },
            "uncompressed_file": "1676885014002637:5484"
        }
    },
    "1676885014002559:5335": {
        "IResourceController": {
            "name": "Zone1-3",
            "type": 1,
            "subtype": 9,
            "dependency": 0,
            "hidden": false,
            "uid": "1676287744167217:1360739",
            "fileId": "1676885014002636:5482",
            "originalId": "1676885014002637:5483",
            "publicId": "1676996204949955:30607",
            "expected_hash": "1166a06fa4123b3c537ba624b76ce40e",
            "additional": {
                "originHash": "de87857e57232e134d980e1c3531b8eb"
            }
        },
        "IResourceManager": {
            "uid": "1676287744167217:1360739",
            "name": "Files/File128.png",
            "flags": 1
        }
    },
    "1676885014002636:5482": {
        "IFileManager": {
            "path": "Files/File_1676885014002636_5482.png"
        }
    },
    "1676885014002637:5483": {
        "IFileManager": {
            "path": "Files/File_1676885014002637_5483.png"
        }
    },
    "1676885014002637:5484": {
        "IFileManager": {
            "path": "Files/File_1676885014002637_5484.png"
        }
    },
    "1676885014002645:5495": {
        "IFileManager": {
            "path": "Files/File_1676885014002645_5495.pvr"
        }
    },
    "1676886072088309:260051": {
        "IFileManager": {
            "path": "Files/File_1676886072088309_260051.png"
        }
    },
    "1676996204949955:30607": {
        "IResourceController": {
            "public": {
                "path": "PuzzleMap/Zone1-3.png",
                "hash": "de87857e57232e134d980e1c3531b8eb"
            }
        }
    }
}
