{
    "1676938002968571:60514": {
        "IFileManager": {
            "path": "Files/File_1676938002968571_60514"
        }
    },
    "1676938002971012:60515": {
        "IResourceController": {
            "name": "TransparentFScreenImg",
            "type": 2,
            "subtype": 1,
            "dependency": 0,
            "hidden": false,
            "uid": "1676938002971019:60516",
            "fileId": "1676938002968571:60514",
            "originalId": "1676938003013749:60522",
            "publicId": "1676996205018899:30678",
            "expected_hash": "869a9208712abc0ef808b67bd0e46528"
        },
        "IResourceManager": {
            "uid": "1676938002971019:60516",
            "name": "Files/File_1676938002968571_60514",
            "flags": 1
        }
    },
    "1676938003013749:60522": {
        "IFileManager": {
            "path": "Files/File_1676938003013749_60522.lsmat"
        }
    },
    "1676996205018899:30678": {
        "IResourceController": {
            "public": {
                "path": "Materials/TransparentFScreenImg.lsmat",
                "hash": "7a102c9368a749bcf7b7c0f9156b8a01"
            }
        }
    }
}
