{
    "1676288064674603:1426365": {
        "RenderOrderComponent": true
    },
    "1676288064688349:1426604": {
        "InspectorComponent": {
            "Component.ScreenTransform": {
                "basicModeSetup": {
                    "attachBottom": "false",
                    "attachLeft": "false",
                    "attachRight": "false",
                    "attachTop": "false",
                    "fixHeight": "false",
                    "fixWidth": "false"
                },
                "isBasicMode": "false"
            }
        }
    }
}
