{
    "1676295744245429:2273410": {
        "Compression::IController": {
            "compressed_files": [
                {
                    "k": {
                        "settings_hash": "2048",
                        "uncompressed_hash": "676c8d71e761b0c24dca8f6685b17edf"
                    },
                    "v": "1676886020504236:221298"
                },
                {
                    "k": {
                        "settings_hash": "2049",
                        "uncompressed_hash": "676c8d71e761b0c24dca8f6685b17edf"
                    },
                    "v": "1676885014002675:5535"
                }
            ],
            "infos": {
                "compressedRAM": "5292032",
                "compressedSize": "1353",
                "extension": "png",
                "originalRAM": "5292032",
                "originalSize": "8975",
                "settings": {
                    "isCompressed": "true",
                    "level": "2",
                    "subtype": "9",
                    "type": "0"
                }
            },
            "uncompressed_file": "1676885014002669:5528"
        }
    },
    "1676885014002561:5345": {
        "IResourceController": {
            "name": "MapsBorder",
            "type": 1,
            "subtype": 9,
            "dependency": 0,
            "hidden": false,
            "uid": "1676295744245429:2273410",
            "fileId": "1676885014002668:5526",
            "originalId": "1676885014002669:5527",
            "publicId": "1676996204931530:30581",
            "expected_hash": "43bed3deeb6690dd3f72d00a806c5f05",
            "additional": {
                "originHash": "f5d1f28978c4fec5c94f72b836a74947"
            }
        },
        "IResourceManager": {
            "uid": "1676295744245429:2273410",
            "name": "Files/File176.png",
            "flags": 1
        }
    },
    "1676885014002668:5526": {
        "IFileManager": {
            "path": "Files/File_1676885014002668_5526.png"
        }
    },
    "1676885014002669:5527": {
        "IFileManager": {
            "path": "Files/File_1676885014002669_5527.png"
        }
    },
    "1676885014002669:5528": {
        "IFileManager": {
            "path": "Files/File_1676885014002669_5528.png"
        }
    },
    "1676885014002675:5535": {
        "IFileManager": {
            "path": "Files/File_1676885014002675_5535.pvr"
        }
    },
    "1676886020504236:221298": {
        "IFileManager": {
            "path": "Files/File_1676886020504236_221298.png"
        }
    },
    "1676996204931530:30581": {
        "IResourceController": {
            "public": {
                "path": "Palm UI/MapsBorder.png",
                "hash": "f5d1f28978c4fec5c94f72b836a74947"
            }
        }
    }
}
