{
    "1676287743793781:1360104": {
        "Compression::IController": {
            "compressed_files": [
                {
                    "k": {
                        "settings_hash": "2048",
                        "uncompressed_hash": "f260bc4248d9be7fba828780362236d7"
                    },
                    "v": "1676886071485314:254788"
                },
                {
                    "k": {
                        "settings_hash": "2049",
                        "uncompressed_hash": "f260bc4248d9be7fba828780362236d7"
                    },
                    "v": "1676885014002644:5493"
                }
            ],
            "infos": {
                "compressedRAM": "4086368",
                "compressedSize": "24443",
                "extension": "png",
                "originalRAM": "4086368",
                "originalSize": "160077",
                "settings": {
                    "isCompressed": "true",
                    "level": "2",
                    "subtype": "9",
                    "type": "0"
                }
            },
            "uncompressed_file": "1676885014002633:5478"
        }
    },
    "1676885014002559:5333": {
        "IResourceController": {
            "name": "Zone1-1",
            "type": 1,
            "subtype": 9,
            "dependency": 0,
            "hidden": false,
            "uid": "1676287743793781:1360104",
            "fileId": "1676885014002632:5476",
            "originalId": "1676885014002632:5477",
            "publicId": "1676996204948773:30605",
            "expected_hash": "3705141f9d31f63e010eb995f0da1ddf",
            "additional": {
                "originHash": "f260bc4248d9be7fba828780362236d7"
            }
        },
        "IResourceManager": {
            "uid": "1676287743793781:1360104",
            "name": "Files/File122.png",
            "flags": 1
        }
    },
    "1676885014002632:5476": {
        "IFileManager": {
            "path": "Files/File_1676885014002632_5476.png"
        }
    },
    "1676885014002632:5477": {
        "IFileManager": {
            "path": "Files/File_1676885014002632_5477.png"
        }
    },
    "1676885014002633:5478": {
        "IFileManager": {
            "path": "Files/File_1676885014002633_5478.png"
        }
    },
    "1676885014002644:5493": {
        "IFileManager": {
            "path": "Files/File_1676885014002644_5493.pvr"
        }
    },
    "1676886071485314:254788": {
        "IFileManager": {
            "path": "Files/File_1676886071485314_254788.png"
        }
    },
    "1676996204948773:30605": {
        "IResourceController": {
            "public": {
                "path": "PuzzleMap/Zone1-1.png",
                "hash": "f260bc4248d9be7fba828780362236d7"
            }
        }
    }
}
