{
    "1676839262476175:106157": {
        "RenderOrderComponent": true
    },
    "1676839262478355:106159": {
        "InspectorComponent": {
            "Component.ScreenTransform": {
                "basicModeSetup": {
                    "attachBottom": "false",
                    "attachLeft": "false",
                    "attachRight": "false",
                    "attachTop": "false",
                    "fixHeight": "false",
                    "fixWidth": "false"
                },
                "isBasicMode": "false"
            }
        }
    }
}
