{
    "1676296122202513:2429389": {
        "RenderOrderComponent": true
    },
    "1676296122202825:2429390": {
        "InspectorComponent": {
            "Component.ScreenTransform": {
                "basicModeSetup": {
                    "attachBottom": "false",
                    "attachLeft": "false",
                    "attachRight": "false",
                    "attachTop": "true",
                    "fixHeight": "false",
                    "fixWidth": "false"
                },
                "isBasicMode": "true"
            }
        }
    }
}
