{
    "1676886730572185:537529": {
        "IResourceController": {
            "name": "hat 4",
            "type": 3,
            "subtype": 4,
            "dependency": 0,
            "hidden": false,
            "uid": "1676886730572184:537528",
            "additional": {
                "_exteraFile_": [
                    "Files/File_1676886730575236_537539.extmesh"
                ],
                "externalBodyMapFileID": "1676886730575236:537539",
                "externalBodyMapFilepath": "Files/File_1676886730575236_537539.extmesh"
            }
        },
        "IResourceManager": {
            "uid": "1676886730572184:537528",
            "name": "",
            "flags": 0
        }
    }
}
