{
    "1676287130889685:1280823": {
        "Compression::IController": {
            "compressed_files": [
                {
                    "k": {
                        "settings_hash": "2048",
                        "uncompressed_hash": "2b3cc61e4a24321f6ee6b8e8a1095693"
                    },
                    "v": "1676885994268509:172842"
                },
                {
                    "k": {
                        "settings_hash": "2049",
                        "uncompressed_hash": "2b3cc61e4a24321f6ee6b8e8a1095693"
                    },
                    "v": "1676885014002626:5469"
                }
            ],
            "infos": {
                "compressedRAM": "13893632",
                "compressedSize": "49394",
                "extension": "png",
                "originalRAM": "13893632",
                "originalSize": "196257",
                "settings": {
                    "isCompressed": "true",
                    "level": "2",
                    "subtype": "9",
                    "type": "0"
                }
            },
            "uncompressed_file": "1676885014002626:5468"
        }
    },
    "1676885014002559:5330": {
        "IResourceController": {
            "name": "MapWithOutline",
            "type": 1,
            "subtype": 9,
            "dependency": 0,
            "hidden": false,
            "uid": "1676287130889685:1280823",
            "fileId": "1676885014002624:5466",
            "originalId": "1676885014002625:5467",
            "publicId": "1676996204939628:30595",
            "expected_hash": "ef22a07eca5b51fcdce42a3d9d17a52c",
            "additional": {
                "originHash": "7a05e35e54b74f8be70f5310c5bb1293"
            }
        },
        "IResourceManager": {
            "uid": "1676287130889685:1280823",
            "name": "Files/File84.png",
            "flags": 1
        }
    },
    "1676885014002624:5466": {
        "IFileManager": {
            "path": "Files/File_1676885014002624_5466.png"
        }
    },
    "1676885014002625:5467": {
        "IFileManager": {
            "path": "Files/File_1676885014002625_5467.png"
        }
    },
    "1676885014002626:5468": {
        "IFileManager": {
            "path": "Files/File_1676885014002626_5468.png"
        }
    },
    "1676885014002626:5469": {
        "IFileManager": {
            "path": "Files/File_1676885014002626_5469.pvr"
        }
    },
    "1676885994268509:172842": {
        "IFileManager": {
            "path": "Files/File_1676885994268509_172842.png"
        }
    },
    "1676996204939628:30595": {
        "IResourceController": {
            "public": {
                "path": "Maps/MapWithOutline.png",
                "hash": "7a05e35e54b74f8be70f5310c5bb1293"
            }
        }
    }
}
